# Ini


 
--------------------------------------------- 
# Json

## sheet
 
### line 1

key name  

### line 2

value type

### line 3 - x
 
values
 
### type 

#### basic type

int, integer, float, double, string, bool, boolean

#### array type

int[], integer[], float[], double[], string[], bool[], boolean[]

#### comment type

rem, comment


---------------------------------------------
# AssetBundle 

