%YAML 1.1
%TAG !u! tag:unity3d.com,2011:
--- !u!687078895 &4343727234628468602
SpriteAtlas:
  m_ObjectHideFlags: 0
  m_CorrespondingSourceObject: {fileID: 0}
  m_PrefabInstance: {fileID: 0}
  m_PrefabAsset: {fileID: 0}
  m_Name: DrawingsThumbnailAtlas
  m_EditorData:
    serializedVersion: 2
    textureSettings:
      serializedVersion: 2
      anisoLevel: 1
      compressionQuality: 50
      maxTextureSize: 2048
      textureCompression: 0
      filterMode: 1
      generateMipMaps: 0
      readable: 0
      crunchedCompression: 0
      sRGB: 1
    platformSettings:
    - serializedVersion: 3
      m_BuildTarget: DefaultTexturePlatform
      m_MaxTextureSize: 2048
      m_ResizeAlgorithm: 0
      m_TextureFormat: -1
      m_TextureCompression: 1
      m_CompressionQuality: 50
      m_CrunchedCompression: 0
      m_AllowsAlphaSplitting: 0
      m_Overridden: 0
      m_AndroidETC2FallbackOverride: 0
      m_ForceMaximumCompressionQuality_BC6H_BC7: 0
    - serializedVersion: 3
      m_BuildTarget: iPhone
      m_MaxTextureSize: 2048
      m_ResizeAlgorithm: 0
      m_TextureFormat: 48
      m_TextureCompression: 1
      m_CompressionQuality: 50
      m_CrunchedCompression: 0
      m_AllowsAlphaSplitting: 0
      m_Overridden: 1
      m_AndroidETC2FallbackOverride: 0
      m_ForceMaximumCompressionQuality_BC6H_BC7: 0
    packingSettings:
      serializedVersion: 2
      padding: 2
      blockOffset: 1
      allowAlphaSplitting: 0
      enableRotation: 0
      enableTightPacking: 0
    variantMultiplier: 1
    packables:
    - {fileID: 102900000, guid: c7c30f5db0813f540a106606e989cbdd, type: 3}
    - {fileID: 102900000, guid: 0d0e7dfa55de64cb085224dee4ed3fd5, type: 3}
    totalSpriteSurfaceArea: 4797440
    bindAsDefault: 1
  m_MasterAtlas: {fileID: 0}
  m_PackedSprites:
  - {fileID: 21300000, guid: 0d0939208a357f84a952b0f35887c374, type: 3}
  - {fileID: 21300000, guid: 4ed255405ea133e49b72bcc33c0aeab0, type: 3}
  - {fileID: 21300000, guid: 8c63f0501e5c22d4ba40adc0f7341e5e, type: 3}
  - {fileID: 21300000, guid: 91d4ed600c406584eb91d63299f8fad6, type: 3}
  - {fileID: 21300000, guid: ca86c0704abbde4448ec0088489d976e, type: 3}
  - {fileID: 21300000, guid: 32fcaa70a506f8d45b2ff583e5968b4d, type: 3}
  - {fileID: 21300000, guid: 1eda68801df23334d9f969192d747a13, type: 3}
  - {fileID: 21300000, guid: 0e0910902be364f4384ff0782564a736, type: 3}
  - {fileID: 21300000, guid: 356245a0d8d01924a8b2e501392c7508, type: 3}
  - {fileID: 21300000, guid: c15099c09141d234daa0c6fe6131b0d6, type: 3}
  - {fileID: 21300000, guid: a0aab2f04fe8de145aa7323c11a1b319, type: 3}
  - {fileID: 21300000, guid: a22e9df05486ae547a57df4d9f9364b8, type: 3}
  - {fileID: 21300000, guid: 5a4d9f11bd625ec4e8f07523b755259a, type: 3}
  - {fileID: 21300000, guid: e5ce9221b1782b3438d7a4d845b5dc29, type: 3}
  - {fileID: 21300000, guid: 05494231ac329cc478abe0f3a702b9b4, type: 3}
  - {fileID: 21300000, guid: b3f95651a7ef211488eb1b25227e7263, type: 3}
  - {fileID: 21300000, guid: 95e5436185ed9ef4d896940a1ccbb2e4, type: 3}
  - {fileID: 21300000, guid: c6c0637177d292f429b999933a5c258a, type: 3}
  - {fileID: 21300000, guid: e59f06713bf63b64784a1a6a159a12fe, type: 3}
  - {fileID: 21300000, guid: d27629816757f7c4a9adcf17ce76a7d4, type: 3}
  - {fileID: 21300000, guid: d8ee89811def4934692ddcff0fb5f11d, type: 3}
  - {fileID: 21300000, guid: 52ad52d1a560542409c357c599991fcd, type: 3}
  - {fileID: 21300000, guid: 076cbce1bb943c540ade1441e46a2e99, type: 3}
  - {fileID: 21300000, guid: d3193b0234342b948bad934189a99938, type: 3}
  - {fileID: 21300000, guid: b985f42289fe4486eb2508aff5e93177, type: 3}
  - {fileID: 21300000, guid: 55e08332056baed40be937acc2771299, type: 3}
  - {fileID: 21300000, guid: 07cb2b3265f54444d89d315083485bad, type: 3}
  - {fileID: 21300000, guid: f2b54b3261d6a3c4892c10066470bfef, type: 3}
  - {fileID: 21300000, guid: e4bc227245b09614abd139468e378dd9, type: 3}
  - {fileID: 21300000, guid: e765977277d235148840f21502729a51, type: 3}
  - {fileID: 21300000, guid: 3cd14e72d44f385479f80e0f0b733dd6, type: 3}
  - {fileID: 21300000, guid: d06920d280e38524c849ef61e4d46d82, type: 3}
  - {fileID: 21300000, guid: d8a6e0d2f7d66bc4190cca9485b136ba, type: 3}
  - {fileID: 21300000, guid: f8f5c7d24967f2540a0fd11dcf9c25e3, type: 3}
  - {fileID: 21300000, guid: 539b6fd2a59d25346b01b6863197bc96, type: 3}
  - {fileID: 21300000, guid: e9e6bbe20cdcb1f4788e3f62a4331006, type: 3}
  - {fileID: 21300000, guid: e32c5ef237d06444ea2f443444ddaf7f, type: 3}
  - {fileID: 21300000, guid: 82808ff29a3d4e440b16bac2ed49a171, type: 3}
  - {fileID: 21300000, guid: 4f5db503c736e76498e0d727f28a4ebb, type: 3}
  - {fileID: 21300000, guid: e8d3063347b43b1469856fa6a56e05ae, type: 3}
  - {fileID: 21300000, guid: 6d297733a3b2b1b4fac2003128d9cb70, type: 3}
  - {fileID: 21300000, guid: 81e84f33c7892c64a8fef323af885f40, type: 3}
  - {fileID: 21300000, guid: 72b7b343d9150624f86cb6691cf18e29, type: 3}
  - {fileID: 21300000, guid: d3d922531af562e4383cf510f65e3ba0, type: 3}
  - {fileID: 21300000, guid: c7a6375381935f94b977f97913804a5d, type: 3}
  - {fileID: 21300000, guid: 8c5d375381db78344848fa15659d6349, type: 3}
  - {fileID: 21300000, guid: 3afc016379d0d414fbb2418e14d88c28, type: 3}
  - {fileID: 21300000, guid: d5f3f563a0be9224eba5e7fe490d57a4, type: 3}
  - {fileID: 21300000, guid: 0f92c473716ee9345b3711089d3ba7b8, type: 3}
  - {fileID: 21300000, guid: f9458b836e17e53428996958d7f1b57e, type: 3}
  - {fileID: 21300000, guid: 28210493319fde244978b3548b039eb0, type: 3}
  - {fileID: 21300000, guid: 076b7893c7157f742b13e31c8365f0c7, type: 3}
  - {fileID: 21300000, guid: d7c94ca303b3d7a4aa7909fda49a8bca, type: 3}
  - {fileID: 21300000, guid: a2a022b353dd44b40a62bb814a8828dc, type: 3}
  - {fileID: 21300000, guid: 37db68c35cc26434784a45e8d436bd8b, type: 3}
  - {fileID: 21300000, guid: 92100fc3fc8de5641abbdea2724c7b0e, type: 3}
  - {fileID: 21300000, guid: 3c9812d33bd2d0a40b67227ff31f32f7, type: 3}
  - {fileID: 21300000, guid: cd5df604880162d4490d40cb70e8a8fa, type: 3}
  - {fileID: 21300000, guid: fff8c3143455ea147a5bea684875dd7c, type: 3}
  - {fileID: 21300000, guid: 6562b7146b9fb2d4197d71fa87570788, type: 3}
  - {fileID: 21300000, guid: fe0756249fe7e7e4ab69c03af4968dcb, type: 3}
  - {fileID: 21300000, guid: 037f2c2403e484d4b9c5e58f4c897bba, type: 3}
  - {fileID: 21300000, guid: 611c8e34993fad345b8d33d0cdd31767, type: 3}
  - {fileID: 21300000, guid: c65a9f34690642b4788f796e1d70509a, type: 3}
  - {fileID: 21300000, guid: afc00d441c96b5b49881a28c0ba468a0, type: 3}
  - {fileID: 21300000, guid: ec3d8b64fa3afca4fbbb0918c2b53b42, type: 3}
  - {fileID: 21300000, guid: 2be8c1740053bbb4394f56d0970eb53f, type: 3}
  - {fileID: 21300000, guid: 2d718f74d96adc54186fdc0b49d2fe0e, type: 3}
  - {fileID: 21300000, guid: 54e1b3940dfa2c34a80775181bfbd026, type: 3}
  - {fileID: 21300000, guid: 6b82d7949f8b7ab40b65fdeca78bea7d, type: 3}
  - {fileID: 21300000, guid: d0c56994a610e48c380564034a83b52f, type: 3}
  - {fileID: 21300000, guid: 613d34b415f55e24c8b17067f9bac527, type: 3}
  - {fileID: 21300000, guid: 6d6bc7b472a20104b933c9e4bdfa835b, type: 3}
  - {fileID: 21300000, guid: eaabd4c4b4b2e824cac8c97ee8a8bbad, type: 3}
  - {fileID: 21300000, guid: 282fa5c45fbb55940aefcd18e95b916d, type: 3}
  - {fileID: 21300000, guid: bc9ccdc4b58caae4cb1c58c7d29c65a0, type: 3}
  - {fileID: 21300000, guid: 57046ec47cbfe474eb1c8502854b98a6, type: 3}
  - {fileID: 21300000, guid: aa88e3d478204c04b91dcbe44c79984a, type: 3}
  - {fileID: 21300000, guid: 12d027d464843364a989696474c6c183, type: 3}
  - {fileID: 21300000, guid: 4930d5e419767ef4facc4e00d7a4fd88, type: 3}
  - {fileID: 21300000, guid: 3f5926e419986bb4c8ae986c9425064a, type: 3}
  - {fileID: 21300000, guid: 58d2e305460ccf44c8a6d4a9d0aa548a, type: 3}
  - {fileID: 21300000, guid: 712d8b0531fdac94c9cb52ec7bc9abf8, type: 3}
  - {fileID: 21300000, guid: 77bc0a35dd557cb4eaa1ca7dc9a120c5, type: 3}
  - {fileID: 21300000, guid: 54510e35a9c09ad48b11b6dc8acd9a19, type: 3}
  - {fileID: 21300000, guid: f45f9685978c0c243a3f2942e0f504ce, type: 3}
  - {fileID: 21300000, guid: 8d1638854d988964fa48b28f0f18b6f4, type: 3}
  - {fileID: 21300000, guid: 8ef32b95c4bc49f47a45cb3179578511, type: 3}
  - {fileID: 21300000, guid: 271e9b95e5f9d8f4f826a44f680ac326, type: 3}
  - {fileID: 21300000, guid: 8a06f5a5e0b584956910a18a7fb458ba, type: 3}
  - {fileID: 21300000, guid: 170faaa5c42a59645a0f3cc665580a6e, type: 3}
  - {fileID: 21300000, guid: 6e72d9b5055f9b94098d367524c5188d, type: 3}
  - {fileID: 21300000, guid: bee543d5bb330e14b94d00a786149f6f, type: 3}
  - {fileID: 21300000, guid: dd8f3cf553211d747886871d8f8acac5, type: 3}
  - {fileID: 21300000, guid: 1de15026e0c8ef24ea1861ef20d0fc4a, type: 3}
  - {fileID: 21300000, guid: 6f3ab6267f7735d419ba2f463b8c1c6c, type: 3}
  - {fileID: 21300000, guid: 58119d26ce7bb484cbaa929d10182330, type: 3}
  - {fileID: 21300000, guid: ddd505368d3df2043aab3d4740e46684, type: 3}
  - {fileID: 21300000, guid: 3dffeb3666724ad46b5206b24171581a, type: 3}
  - {fileID: 21300000, guid: a6296f466d8d5bb4f9156fcf7381b3c8, type: 3}
  - {fileID: 21300000, guid: 934f6866a8d9cf24aaa089c198f76d32, type: 3}
  - {fileID: 21300000, guid: 6799db66c4cbabf4cbf4c03f7bdc0689, type: 3}
  - {fileID: 21300000, guid: bd05aa8646a04974c8165b362025fe80, type: 3}
  - {fileID: 21300000, guid: 8d2178962c67b6e4f8b33db955f01c37, type: 3}
  - {fileID: 21300000, guid: e2fba4a6a32526e4cb5491432340b3b4, type: 3}
  - {fileID: 21300000, guid: 50654da6cd56f8b41a98690c5bf078d9, type: 3}
  - {fileID: 21300000, guid: 4e2cfea6ebb27fe4d95ff792e5a720b2, type: 3}
  - {fileID: 21300000, guid: a6dd81c605291e04dbe288724ca76403, type: 3}
  - {fileID: 21300000, guid: b1f342c6277c0a94399ce2f19b342277, type: 3}
  - {fileID: 21300000, guid: dcaa69d6652ff0c4fa9e7bf4dec0b84f, type: 3}
  - {fileID: 21300000, guid: 172046e6d28e6d847871f00cbf3f3f97, type: 3}
  - {fileID: 21300000, guid: 2b77fee63310d4efa9295a3897c5d48b, type: 3}
  - {fileID: 21300000, guid: eb0224f6fca8165489a7922401d3c584, type: 3}
  - {fileID: 21300000, guid: 4cd60947ce3e7474c9bb64a1503e8ed7, type: 3}
  - {fileID: 21300000, guid: 157f8c6760d659a4987bc0ab2bd6ca30, type: 3}
  - {fileID: 21300000, guid: 8cf7ab77f2a794740a53bbea671a0cc2, type: 3}
  - {fileID: 21300000, guid: cfb2568780248814782d95b0a9d3b293, type: 3}
  - {fileID: 21300000, guid: 30225f87069646c4f97300014d56ca29, type: 3}
  - {fileID: 21300000, guid: 466691a7c21bda0489aa2fee4da196ef, type: 3}
  - {fileID: 21300000, guid: 225c74b733d3aa2489706ee2c7a0d9d0, type: 3}
  - {fileID: 21300000, guid: d9dbf5d74628f5b42b4dcc540ee0893a, type: 3}
  - {fileID: 21300000, guid: 049f98d7fd0913d419de706b75c78b58, type: 3}
  - {fileID: 21300000, guid: 1d882dd7f810d1d43bd1f53a3a1eff1c, type: 3}
  - {fileID: 21300000, guid: e0edbef7eab340645ad4b713dc1ddaae, type: 3}
  - {fileID: 21300000, guid: 24d020184bb7aa14a9442478750a60a3, type: 3}
  - {fileID: 21300000, guid: 29e37848452e8f24c9cddab2285cea0f, type: 3}
  - {fileID: 21300000, guid: c9c43f48eac71304dba0cfb9bb28a48e, type: 3}
  - {fileID: 21300000, guid: e697f188c3904164388ecbb1c58cc5c1, type: 3}
  - {fileID: 21300000, guid: 7483b58830ec0534b9b0bcc03bbe277b, type: 3}
  - {fileID: 21300000, guid: 23761888c88864c498604cbd7b0ebdc4, type: 3}
  - {fileID: 21300000, guid: b8801a88a17bd8c4cae48350f7d1a4b1, type: 3}
  - {fileID: 21300000, guid: bb6bb3983f1950a438572a4c7d411955, type: 3}
  - {fileID: 21300000, guid: b42a48985cacceb44a45923f0895816a, type: 3}
  - {fileID: 21300000, guid: d9c09e98dab73af4281ead1e066ff57f, type: 3}
  - {fileID: 21300000, guid: b425d7b8c91ef444fb670055cda978c2, type: 3}
  - {fileID: 21300000, guid: 3360dab8a3a886645b6d96d7acccb7b2, type: 3}
  - {fileID: 21300000, guid: 3cc1c7c8f2e506f47a7d673a8d019a5f, type: 3}
  - {fileID: 21300000, guid: 80794fd813f50fc488b781ba3235321f, type: 3}
  - {fileID: 21300000, guid: 555bafd8f3ec6a548ab9d6a58ee7d11a, type: 3}
  - {fileID: 21300000, guid: 5964a6f85c226074688dbd8f5fb2ec48, type: 3}
  - {fileID: 21300000, guid: 479038f85dfa04241984ea2f51c0911f, type: 3}
  - {fileID: 21300000, guid: 4a3fc329902a4384db8300fa72dd1020, type: 3}
  - {fileID: 21300000, guid: db99054964a366148a3946d0e19bc698, type: 3}
  - {fileID: 21300000, guid: c25ecb496e25c1c458cf1f216db89a40, type: 3}
  - {fileID: 21300000, guid: ffc64259ae50c194aa0c425414c9f129, type: 3}
  - {fileID: 21300000, guid: 02a73969612e47a469eb292380a19b40, type: 3}
  - {fileID: 21300000, guid: 5b2bf6792c13ff84e901378e495aaf40, type: 3}
  - {fileID: 21300000, guid: 772d3b79c0b46f649880559ca8409845, type: 3}
  - {fileID: 21300000, guid: ad274089776eca54b9324d392ba3f0ba, type: 3}
  - {fileID: 21300000, guid: dd321da955a40234d9ff4dadeb4fe369, type: 3}
  - {fileID: 21300000, guid: 244deeb9133567e4d85d6d5dae108f2f, type: 3}
  - {fileID: 21300000, guid: 8ae144e90b2f47042b935427e8a51abb, type: 3}
  - {fileID: 21300000, guid: c4ec26e954c236a49b9893a4fdc7a59e, type: 3}
  - {fileID: 21300000, guid: 68c030f9b4bd830499a167b75c14f55b, type: 3}
  - {fileID: 21300000, guid: 790235f900695b6489465e6d995f455d, type: 3}
  - {fileID: 21300000, guid: 0565cb0ad7e1e4946a2e7747820ac983, type: 3}
  - {fileID: 21300000, guid: 9308b22a0e32e5b41b61d24c94fb1fe3, type: 3}
  - {fileID: 21300000, guid: 5481132afda041f4da650288576632e1, type: 3}
  - {fileID: 21300000, guid: 0cb3613aed75b4d419b9d54a9541534e, type: 3}
  - {fileID: 21300000, guid: c95a623a025f5d740a74fdcb64856af3, type: 3}
  - {fileID: 21300000, guid: d7e9923af59794f45b16ddf2b84a85d8, type: 3}
  - {fileID: 21300000, guid: 61c86e3a5a5773043920e5b324869b50, type: 3}
  - {fileID: 21300000, guid: 09ea5b5ad629bc24e950cc2a0d964f23, type: 3}
  - {fileID: 21300000, guid: 9e5ae47a87d9c7d4baa791e60292cae3, type: 3}
  - {fileID: 21300000, guid: c3615a7a4e8ff6244b6c9eed3498d090, type: 3}
  - {fileID: 21300000, guid: 504f318a073b0d54cb7d6cb7958336e7, type: 3}
  - {fileID: 21300000, guid: 998b7f8aa312e594f8da0e7649e06560, type: 3}
  - {fileID: 21300000, guid: 35cebb9a3a4a5e844ab7876ffcdec243, type: 3}
  - {fileID: 21300000, guid: 467831aa049e19c43a8818662f5f0b78, type: 3}
  - {fileID: 21300000, guid: 627143bac1d2aed4fa40e84d14800c3a, type: 3}
  - {fileID: 21300000, guid: 089786ca9ab89db4aa33c5c13961e2b9, type: 3}
  - {fileID: 21300000, guid: b08a75dabc82346798ed1a6fabd8e543, type: 3}
  - {fileID: 21300000, guid: c053f1ea00ad1f9459527a07fdd90afc, type: 3}
  - {fileID: 21300000, guid: 9c29f8ea8f60c9b43b86e62d7dae280e, type: 3}
  - {fileID: 21300000, guid: a3684ffae5fee09439d5f998a945b35b, type: 3}
  - {fileID: 21300000, guid: c365b61b70538cb4cb12a28614786ae6, type: 3}
  - {fileID: 21300000, guid: 7b6a8a1bb864df542a23dca471146f42, type: 3}
  - {fileID: 21300000, guid: 5901ca1bf63c5a943896f121aa7876f5, type: 3}
  - {fileID: 21300000, guid: 2245db1b271be6a4d94a5915f54de78a, type: 3}
  - {fileID: 21300000, guid: bec1d93b2593bfe44b6a7adc57c45b46, type: 3}
  - {fileID: 21300000, guid: 3f79de3b90d85fd41b06064cec9fc44a, type: 3}
  - {fileID: 21300000, guid: 06d08f4b60153d24da732c2707172835, type: 3}
  - {fileID: 21300000, guid: 64bc7c5b730a5fb43a2ad756a1cc6c40, type: 3}
  - {fileID: 21300000, guid: a824a56b08994d54b99fcc87ec625933, type: 3}
  - {fileID: 21300000, guid: c424cb6b2f3f0af4cbd88771ffa795ad, type: 3}
  - {fileID: 21300000, guid: b47d6f6b7c6af68488967c11ba8edb60, type: 3}
  - {fileID: 21300000, guid: b219e87beaf74024ca3d17b673cda62a, type: 3}
  - {fileID: 21300000, guid: 71fc4d9b9eb9ef348bee5ebc0dee4a19, type: 3}
  - {fileID: 21300000, guid: 37acbe9b15a17f34aa888b7969b8d3ea, type: 3}
  - {fileID: 21300000, guid: 35717ecbd93cf024eb3cfe8946a016ff, type: 3}
  - {fileID: 21300000, guid: 08275aeb037b23b42aae6ffc03cd58d7, type: 3}
  - {fileID: 21300000, guid: 452c0deb24ba99448a119a69ba199474, type: 3}
  - {fileID: 21300000, guid: 2ded73fb7d6807d4bb848d01337dc26d, type: 3}
  - {fileID: 21300000, guid: de1df8fb4f825dd45b0ac30464236261, type: 3}
  - {fileID: 21300000, guid: 7119231c3773c744ab4202c72a360f55, type: 3}
  - {fileID: 21300000, guid: bf06e81c7283a7c47a536adb9ec1dc35, type: 3}
  - {fileID: 21300000, guid: 7db4d02c369e888488488091aa3433e2, type: 3}
  - {fileID: 21300000, guid: be9c5c2c6f62f6941905968173de5dac, type: 3}
  - {fileID: 21300000, guid: 432b524c3df9a944d91f7f3b7b3f07ec, type: 3}
  - {fileID: 21300000, guid: 6f5dd74cdf0734b418b667a0b9cc19a9, type: 3}
  - {fileID: 21300000, guid: 47d89a5c38cf9804991a9d5870f2de8e, type: 3}
  - {fileID: 21300000, guid: 8433fd5cc6d9cac4aa8ee4480bb2f162, type: 3}
  - {fileID: 21300000, guid: c5e75e7cec7f2694b89a4c708b4b32ae, type: 3}
  - {fileID: 21300000, guid: 117ce88c52493184f8ba8eec1964ec93, type: 3}
  - {fileID: 21300000, guid: 7a006ebcdf339574fa1f7185a83a127e, type: 3}
  - {fileID: 21300000, guid: bc265dcc550f1274e8a7092fe709e68c, type: 3}
  - {fileID: 21300000, guid: ff87c0dcff1750244b61cf68c75a2931, type: 3}
  - {fileID: 21300000, guid: f0bca2dc740bdae4484dc5ef876fc883, type: 3}
  - {fileID: 21300000, guid: db29b9ece5d1dff459db2dc9a34c9291, type: 3}
  - {fileID: 21300000, guid: c21c7eeca9405be4bac04541d1b80fb4, type: 3}
  - {fileID: 21300000, guid: 7f9b230dcbc1aa84eac4afd5ac79d116, type: 3}
  - {fileID: 21300000, guid: 1eb28c0da0f50424d94d75fe2ca4a3bc, type: 3}
  - {fileID: 21300000, guid: 85ce521dd9571d6409d6d111a92dbee3, type: 3}
  - {fileID: 21300000, guid: f6a8e71ddc564354dbaf4129d43dcf2f, type: 3}
  - {fileID: 21300000, guid: b34a002d5f664ae4ca0b8d1366c968ce, type: 3}
  - {fileID: 21300000, guid: f7241b5d6eb38fb4f819019d2b3300ce, type: 3}
  - {fileID: 21300000, guid: a817f67d1ee898d46afbadf60ae4055e, type: 3}
  - {fileID: 21300000, guid: 04ecef8d769c1b64aaf46e80d7578f03, type: 3}
  - {fileID: 21300000, guid: 0d4e339d407cbd4418ed04dc7ac339af, type: 3}
  - {fileID: 21300000, guid: 3157ba9d9defb744ca8ed1bbfb3b6c24, type: 3}
  - {fileID: 21300000, guid: cbbc39ad1abf456478add41ea477821b, type: 3}
  - {fileID: 21300000, guid: e6d05cbdb726beb4ab4439dc78b44a7c, type: 3}
  - {fileID: 21300000, guid: d4bcc1cdda29597448a166fdc5855fe8, type: 3}
  - {fileID: 21300000, guid: 460063dd408f97c4fb87f16d57a0fb1f, type: 3}
  - {fileID: 21300000, guid: f164c3ddc13cd444e88bd58e0ac9613e, type: 3}
  - {fileID: 21300000, guid: 682c181ef21c2b142a3ade31fd2c9bca, type: 3}
  - {fileID: 21300000, guid: ec8f881e15905c546a01b13ef304c86f, type: 3}
  - {fileID: 21300000, guid: 79d4d72e283379c4896c4695aaa49dd3, type: 3}
  - {fileID: 21300000, guid: be69ce3ec9fec954ba44f09c8b740fa7, type: 3}
  - {fileID: 21300000, guid: e944d54e0c414454d8e9a5bd60956790, type: 3}
  - {fileID: 21300000, guid: dbf7425e1e02ff8458a3c420e25fcaa8, type: 3}
  - {fileID: 21300000, guid: e32c685ed8a38f5428616131e37a7e77, type: 3}
  - {fileID: 21300000, guid: 9267295ef63586a48a495e38a312bf6c, type: 3}
  - {fileID: 21300000, guid: 18dce95edd48c4c4dabe2ddf918321d2, type: 3}
  - {fileID: 21300000, guid: 5e147a5e1d10e15419900186ba1fd580, type: 3}
  - {fileID: 21300000, guid: 6d6b0c5e6b9b20e408bacf88c2c9a3b2, type: 3}
  - {fileID: 21300000, guid: 8cef756e71012af4ba2b4adb5558b325, type: 3}
  - {fileID: 21300000, guid: eee2b97e3487b2044bb2417d13952d78, type: 3}
  - {fileID: 21300000, guid: e919e88e7dbcf904ca523e0ad2531760, type: 3}
  - {fileID: 21300000, guid: fe97e89e6cc6a954093bdc8720cc40cc, type: 3}
  - {fileID: 21300000, guid: 5a858a9e0bb400941b6100a09eb6e514, type: 3}
  - {fileID: 21300000, guid: 2a8788ae72b9c3849bb23af3376d270d, type: 3}
  - {fileID: 21300000, guid: da7535be7250ab5488e4c626ec22c857, type: 3}
  - {fileID: 21300000, guid: d3f2acbe7b3d61c49b3ea6c9a0e1773a, type: 3}
  - {fileID: 21300000, guid: 03c329ce841d10c488b2755f6e60b4eb, type: 3}
  - {fileID: 21300000, guid: 4113cbdeeab8c0f4bb1676153e6c8ba4, type: 3}
  - {fileID: 21300000, guid: a44257eeec1ac6448b2535d6b2f7adaa, type: 3}
  - {fileID: 21300000, guid: d4bdfcee690a10049a4278b0a65b9fdf, type: 3}
  - {fileID: 21300000, guid: 92679ffeb5e27c84eab2e0814f8bdd6b, type: 3}
  - {fileID: 21300000, guid: 1fdc840ff8b44b24aaa7acd2a76d08ed, type: 3}
  - {fileID: 21300000, guid: c5d5301fb8436ef42adcb46990e0b483, type: 3}
  - {fileID: 21300000, guid: f1c8261f3869226458a5361f3c978ad3, type: 3}
  - {fileID: 21300000, guid: a2f2372fcab0ac649b24a72b3eebae85, type: 3}
  - {fileID: 21300000, guid: e8efdf3fb3a376c4e918a1e92babc582, type: 3}
  - {fileID: 21300000, guid: d55a524f9ad77d442bd1e72bfd65fd62, type: 3}
  - {fileID: 21300000, guid: eab3384fa6ff2f645957ea5092b61dca, type: 3}
  - {fileID: 21300000, guid: 4fef745f91a791e47a7cc3507cee518e, type: 3}
  - {fileID: 21300000, guid: 2912546fe1937ae4899712b01c8f84de, type: 3}
  - {fileID: 21300000, guid: 4107676fb492e9e4e954ce8c5fa89de7, type: 3}
  - {fileID: 21300000, guid: ec98167f228841944b98d89a5e52f597, type: 3}
  - {fileID: 21300000, guid: c8464a7ff35bd3845a665f5ab383b7f4, type: 3}
  - {fileID: 21300000, guid: 38f4fc8fab6fa474caf410caf5b50cb0, type: 3}
  - {fileID: 21300000, guid: 79177a9f90cdc2646a7cefa9287ab112, type: 3}
  - {fileID: 21300000, guid: de0a1b9f098670a42b39868089b52101, type: 3}
  - {fileID: 21300000, guid: c5bc6c9f802b7c746be60d7e7c4ac9c9, type: 3}
  - {fileID: 21300000, guid: 456becafd9d58b741aa870e65513be2c, type: 3}
  - {fileID: 21300000, guid: 4cd52edf51a9e2745820a3e01224c98b, type: 3}
  - {fileID: 21300000, guid: ada6e9efa483bc14ab32bd084bc1af87, type: 3}
  - {fileID: 21300000, guid: c20723ff154b90f488fc098459300372, type: 3}
  m_PackedSpriteNamesToIndex:
  - 107
  - 221
  - 39
  - 69
  - 185
  - 150
  - 135
  - 156
  - 237
  - 21
  - 91
  - 42
  - 181
  - 30
  - 183
  - 184
  - 251
  - 64
  - 239
  - 33
  - 192
  - 163
  - 12
  - 207
  - DecorSprite_3
  - 210
  - 224
  - 217
  - 63
  - 40
  - 209
  - 191
  - 238
  - 27
  - 59
  - 190
  - 45
  - 43
  - 71
  - 80
  - 92
  - 96
  - 172
  - 14
  - 1
  - 158
  - 103
  - 76
  - 189
  - 11
  - 97
  - 24
  - 56
  - 222
  - 84
  - 62
  - 128
  - 218
  - 66
  - 232
  - 194
  - 46
  - 177
  - 73
  - 247
  - 161
  - 9
  - 167
  - 171
  - 89
  - DecorSprite_4
  - 208
  - 256
  - 77
  - 230
  - 199
  - 211
  - 146
  - 122
  - 137
  - 114
  - 140
  - 200
  - 38
  - 85
  - 3
  - 170
  - 136
  - 149
  - DecorSprite_1
  - 143
  - 162
  - 215
  - 7
  - 202
  - 101
  - 37
  - 250
  - 244
  - 176
  - 124
  - 263
  - 259
  - 166
  - 205
  - 10
  - 6
  - 147
  - 65
  - 72
  - 219
  - DecorSprite_2
  - 180
  - 242
  - 132
  - 196
  - 168
  - 186
  - 68
  - 99
  - 82
  - 5
  - 245
  - 134
  - 109
  - 100
  - 212
  - 246
  - 155
  - 145
  - 159
  - 15
  - 153
  - 34
  - 233
  - 201
  - 243
  - 220
  - 35
  - 203
  - 44
  - 213
  - 95
  - 120
  - 258
  - 240
  - 121
  - 26
  - 228
  - 20
  - 108
  - 16
  - 133
  - 130
  - 226
  - 187
  - 193
  - 104
  - 261
  - 52
  - 129
  - 17
  - 214
  - 125
  - 148
  - 105
  - 234
  - 198
  - 53
  - 157
  - 249
  - DecorSprite_5
  - 47
  - 61
  - 57
  - 142
  - 262
  - 112
  - 173
  - 152
  - 29
  - 8
  - 151
  - 260
  - 236
  - 111
  - 113
  - 169
  - 188
  - 241
  - 257
  - 51
  - 79
  - 126
  - 90
  - 86
  - 144
  - 22
  - 227
  - 127
  - 253
  - 94
  - 119
  - 160
  - 2
  - 74
  - 102
  - 115
  - 19
  - 83
  - 252
  - 78
  - 93
  - 54
  - 48
  - 165
  - 60
  - 106
  - 179
  - 141
  - 175
  - 88
  - 41
  - 195
  - 4
  - 216
  - 225
  - 138
  - 58
  - 164
  - 49
  - 31
  - 70
  - 154
  - 139
  - 206
  - 23
  - 131
  - 117
  - 264
  - 50
  - 178
  - 254
  - 36
  - 87
  - 75
  - 123
  - 98
  - 204
  - 55
  - 174
  - 231
  - 235
  - 81
  - 116
  - 197
  - 248
  - 67
  - 25
  - 13
  - 182
  - 110
  - 255
  - 118
  - 18
  - 229
  - 32
  - 223
  - 28
  m_Tag: DrawingsThumbnailAtlas
  m_IsVariant: 0
