%YAML 1.1
%TAG !u! tag:unity3d.com,2011:
--- !u!687078895 &4343727234628468602
SpriteAtlas:
  m_ObjectHideFlags: 0
  m_CorrespondingSourceObject: {fileID: 0}
  m_PrefabInstance: {fileID: 0}
  m_PrefabAsset: {fileID: 0}
  m_Name: UIAtlas
  m_EditorData:
    serializedVersion: 2
    textureSettings:
      serializedVersion: 2
      anisoLevel: 1
      compressionQuality: 50
      maxTextureSize: 2048
      textureCompression: 0
      filterMode: 1
      generateMipMaps: 0
      readable: 0
      crunchedCompression: 0
      sRGB: 1
    platformSettings:
    - serializedVersion: 3
      m_BuildTarget: iPhone
      m_MaxTextureSize: 2048
      m_ResizeAlgorithm: 0
      m_TextureFormat: 48
      m_TextureCompression: 1
      m_CompressionQuality: 50
      m_CrunchedCompression: 0
      m_AllowsAlphaSplitting: 0
      m_Overridden: 1
      m_AndroidETC2FallbackOverride: 0
      m_ForceMaximumCompressionQuality_BC6H_BC7: 0
    - serializedVersion: 3
      m_BuildTarget: DefaultTexturePlatform
      m_MaxTextureSize: 2048
      m_ResizeAlgorithm: 0
      m_TextureFormat: -1
      m_TextureCompression: 1
      m_CompressionQuality: 50
      m_CrunchedCompression: 0
      m_AllowsAlphaSplitting: 0
      m_Overridden: 0
      m_AndroidETC2FallbackOverride: 0
      m_ForceMaximumCompressionQuality_BC6H_BC7: 0
    packingSettings:
      serializedVersion: 2
      padding: 4
      blockOffset: 1
      allowAlphaSplitting: 0
      enableRotation: 0
      enableTightPacking: 0
    variantMultiplier: 1
    packables:
    - {fileID: 102900000, guid: 82bff64416390db4bbd45d872f38a982, type: 3}
    - {fileID: 102900000, guid: aff70fbe1e311f74f8c4775c29afe320, type: 3}
    totalSpriteSurfaceArea: 3526120
    bindAsDefault: 1
  m_MasterAtlas: {fileID: 0}
  m_PackedSprites:
  - {fileID: 21300000, guid: c0d242004dc88ff42b95d2608d5aca20, type: 3}
  - {fileID: 21300000, guid: ffac3d00b5e586c4b8ff8755d28d9c05, type: 3}
  - {fileID: 21300000, guid: 11d1357090b8b7c47a941692aadaa952, type: 3}
  - {fileID: 21300000, guid: d47c02905edb9844e885359f0672071d, type: 3}
  - {fileID: 21300000, guid: ab90089089f95a44a92f75aa6bf47e6a, type: 3}
  - {fileID: 21300000, guid: 624891a07237a1943943ba11c35dfbda, type: 3}
  - {fileID: 21300000, guid: 571e74e0f7868ef48a3b22add0bb62a3, type: 3}
  - {fileID: 21300000, guid: 2860e3f02fc1e684592ed696307c50ad, type: 3}
  - {fileID: 21300000, guid: 888bcef0748103542bb5088289e41d64, type: 3}
  - {fileID: 21300000, guid: 40c4c501e6743334580c01867177d6d5, type: 3}
  - {fileID: 21300000, guid: fb1a87517ce1b604a9e3adb331afdeb8, type: 3}
  - {fileID: 21300000, guid: 3d812e71420652744944c95934754c4c, type: 3}
  - {fileID: 21300000, guid: 79982691f77b34e50b0e2d62b1777fc5, type: 3}
  - {fileID: 21300000, guid: 187e46917e7816b418a9160fcd7e3a98, type: 3}
  - {fileID: 21300000, guid: db4c86914350dd346b548292ffb4118e, type: 3}
  - {fileID: 21300000, guid: 2d8a6d91e4e144bbd9fd469abd960ffe, type: 3}
  - {fileID: 21300000, guid: 671b0fa1bf5bb8541b6eea8ceb268df4, type: 3}
  - {fileID: 21300000, guid: c502efc1f0d850c4a99d5e00ba50df95, type: 3}
  - {fileID: 21300000, guid: 7ede26d1b0318544980328444501868d, type: 3}
  - {fileID: 21300000, guid: c8c2d0f1183730f46b267822e970b195, type: 3}
  - {fileID: 21300000, guid: 67be88f1492f91a46b9946b65609d7df, type: 3}
  - {fileID: 21300000, guid: ebd49c12ae54835428e77830f70dcc65, type: 3}
  - {fileID: 21300000, guid: 3ce60122438454bcebb31ad85f7991e9, type: 3}
  - {fileID: 21300000, guid: 69fcdc226ea15c0458458ae42ae33f83, type: 3}
  - {fileID: 21300000, guid: 6302473287f9b534ebcac06f78421da6, type: 3}
  - {fileID: 21300000, guid: 70615e4261afd544eb02718ad2e5c68d, type: 3}
  - {fileID: 21300000, guid: 8158a46240868304693707057534e1a2, type: 3}
  - {fileID: 21300000, guid: 8dcc7a82368a8b54cacc60e15daad422, type: 3}
  - {fileID: 21300000, guid: ce1f5b92692b7422aba32f7e554fc1df, type: 3}
  - {fileID: 21300000, guid: e4c613a20e5f1e34f98ad9b8f1a04455, type: 3}
  - {fileID: 21300000, guid: 13e408b215bf31843b441f02dd02e90e, type: 3}
  - {fileID: 21300000, guid: f8d6bfb276a88a14dac9ec9d395f8cca, type: 3}
  - {fileID: 21300000, guid: 6519b4c267fc72f4d9db98a0cecc91a6, type: 3}
  - {fileID: 21300000, guid: 4c7c3ce2568241046b5af8896799cec1, type: 3}
  - {fileID: 21300000, guid: 31627003455e110489d46a9063e9ff5f, type: 3}
  - {fileID: 21300000, guid: da0e882361062fc42bf6b43d8abcd8de, type: 3}
  - {fileID: 21300000, guid: 61d99953b80a79c4fa4034015a258e6c, type: 3}
  - {fileID: 21300000, guid: 6c4d91739b1bf52489b6465e8b57534e, type: 3}
  - {fileID: 21300000, guid: 6ef61373a00124276b10d07d5e8ca83b, type: 3}
  - {fileID: 21300000, guid: 63fe6773a7ebb8b43a3154d614fb9aec, type: 3}
  - {fileID: 21300000, guid: 68404c83f6b76a445a38efb48a7b921c, type: 3}
  - {fileID: 21300000, guid: 1af25993086fcaf4293a7274e9b0754c, type: 3}
  - {fileID: 21300000, guid: 49885e93db06f47c597fd7c3368b7191, type: 3}
  - {fileID: 21300000, guid: 7b6c31a3d4c8b7346bc7cb0d4eaa9330, type: 3}
  - {fileID: 21300000, guid: 49a322c37fa344cf38c871ce93706fb8, type: 3}
  - {fileID: 21300000, guid: bf50e004983ed204a969c7f0d08179a5, type: 3}
  - {fileID: 21300000, guid: 534b3304072b479458bbd742572d876b, type: 3}
  - {fileID: 21300000, guid: 6f9ce6240099d594b88929fcd048b890, type: 3}
  - {fileID: 21300000, guid: 9ceaa874d895f454c8c8500b12cd5777, type: 3}
  - {fileID: 21300000, guid: d8b44b745aa22384e9d2732b668c6d01, type: 3}
  - {fileID: 21300000, guid: bed5be84828d24fbda2b0a0c8e66af83, type: 3}
  - {fileID: 21300000, guid: 00603494bcb289548b05194fe68c4669, type: 3}
  - {fileID: 21300000, guid: a18dafb443e2f42eca371ea1e14f0e87, type: 3}
  - {fileID: 21300000, guid: 3a1164c45a8c48d46a5cc5b511eb9199, type: 3}
  - {fileID: 21300000, guid: 405cc2e49d17f5844a703af5f7c73ce8, type: 3}
  - {fileID: 21300000, guid: ff7bc9f46e2bd804abb73a8de6416714, type: 3}
  - {fileID: 21300000, guid: a0407125945fa434385873f1874bf7ec, type: 3}
  - {fileID: 21300000, guid: 1f175e254739d442d83f680aa31d4aab, type: 3}
  - {fileID: 21300000, guid: be11b53514fb4a241bd953328a6e3127, type: 3}
  - {fileID: 21300000, guid: 33d1a155fc5396140bce66163fd70b44, type: 3}
  - {fileID: 21300000, guid: a6da2e559f035054c95c8c4cd7c3fd0d, type: 3}
  - {fileID: 21300000, guid: 98585e65ab2b0c74490f37ef1cdfecda, type: 3}
  - {fileID: 21300000, guid: 2dea84c5362654755a7fce97295fc4b7, type: 3}
  - {fileID: 21300000, guid: 527e8ad50aaf5e74fb0123d5fdf1d4c5, type: 3}
  - {fileID: 21300000, guid: f210b5e5795ea2342a3a49addb8a8278, type: 3}
  - {fileID: 21300000, guid: 00eba1f580cdf8a4a97dea9c6801344a, type: 3}
  - {fileID: 21300000, guid: 41936106917b4b14a9652066170018bb, type: 3}
  - {fileID: 21300000, guid: 853e9e06c2b2545488ad94e39b657166, type: 3}
  - {fileID: 21300000, guid: a38e9816cbb7b164ea39b099468c2b64, type: 3}
  - {fileID: 21300000, guid: cee92d267478f0e44b0f8736eda5f438, type: 3}
  - {fileID: 21300000, guid: 4c1cc756a4f38f44aa78a6a828b78b92, type: 3}
  - {fileID: 21300000, guid: bf06dc56af2604847a67d6b5b3850938, type: 3}
  - {fileID: 21300000, guid: 64199c66d948b4f539f4f1da496b4df9, type: 3}
  - {fileID: 21300000, guid: de214f86452a2ba43a05d01b87f1878b, type: 3}
  - {fileID: 21300000, guid: 263c7e96b63f25d4fb649fa28af3844a, type: 3}
  - {fileID: 21300000, guid: ab06a1a64d6aa4f45b20e11682f522fb, type: 3}
  - {fileID: 21300000, guid: 41b54ac669bce364fb379f209f867aac, type: 3}
  - {fileID: 21300000, guid: 8c3601f670cb668428ca55a1accef4e0, type: 3}
  - {fileID: 21300000, guid: db3fd60723e17e14fbf9959e5fda2ae1, type: 3}
  - {fileID: 21300000, guid: 3cec2617632931e4ba038c73517f4f83, type: 3}
  - {fileID: 21300000, guid: 4a7d0927dd56af84693c177bf5701b8c, type: 3}
  - {fileID: 21300000, guid: 1be93437e8790314ea26907d425dcfd6, type: 3}
  - {fileID: 21300000, guid: 1b07bd373c367f9438a04097cd87645f, type: 3}
  - {fileID: 21300000, guid: 25683c47b1e4a4f3a86c989a126014b8, type: 3}
  - {fileID: 21300000, guid: 687a0297fb0189141bc03ababe0ba705, type: 3}
  - {fileID: 21300000, guid: 8933af97a1ee4bb4fa2783d7743240ee, type: 3}
  - {fileID: 21300000, guid: e41d4eb74d67f214597d6959001e38b7, type: 3}
  - {fileID: 21300000, guid: 328521f7c2a5c7342be9b7528efaa02e, type: 3}
  - {fileID: 21300000, guid: 60b476084d67dcc40bf2faaa794eec3b, type: 3}
  - {fileID: 21300000, guid: 7ab978084795fa9449749bbee1de5632, type: 3}
  - {fileID: 21300000, guid: a84ed80842a9f48508ebcdc54bbb71c7, type: 3}
  - {fileID: 21300000, guid: 696e390857063584e83f7c2c2106d203, type: 3}
  - {fileID: 21300000, guid: 22949b28bc4e74a78a0be3602852332a, type: 3}
  - {fileID: 21300000, guid: a33ee94852070934fa82e1fe822c0a93, type: 3}
  - {fileID: 21300000, guid: 5444058893cc53646a95774fc4c89b92, type: 3}
  - {fileID: 21300000, guid: 81d4ce88de2e9094b992d394cfe6e47e, type: 3}
  - {fileID: 21300000, guid: 35580a986e131484a8eb256d2a0b1a70, type: 3}
  - {fileID: 21300000, guid: c6ecb3a8b6a8a5748931a8d2ccb93337, type: 3}
  - {fileID: 21300000, guid: e1e1e5b8679a72d46acb32f1eb096a14, type: 3}
  - {fileID: 21300000, guid: b12119c8d9cad4c84aa766fb38838e24, type: 3}
  - {fileID: 21300000, guid: 07fa08e8a56aaa9429d181f600b75f62, type: 3}
  - {fileID: 21300000, guid: e86620f8c0409ff489794e6b4e62bc73, type: 3}
  - {fileID: 21300000, guid: 04bd5ef8e4e8e2b4092cc1abefdb242f, type: 3}
  - {fileID: 21300000, guid: 2d312019b1319a9489a6cdd577754de1, type: 3}
  - {fileID: 21300000, guid: 2fc9b139ae50cf549ae02f8de03ae3c5, type: 3}
  - {fileID: 21300000, guid: 04c70f4970ce65d43951c848041e6bc0, type: 3}
  - {fileID: 21300000, guid: d8a2b159f96240f489e53a6c2972dd21, type: 3}
  - {fileID: 21300000, guid: 70f538791095f4353a3bb74c8d9038a3, type: 3}
  - {fileID: 21300000, guid: b5af69b9058df72459ba47ca32f7e1c9, type: 3}
  - {fileID: 21300000, guid: ae11f4d904a6c21419b99dedb3f4c114, type: 3}
  - {fileID: 21300000, guid: b7e0b7f9f080c5b4685639379416454a, type: 3}
  - {fileID: 21300000, guid: 353758f97599d44b9b9b1f0ad1b1c867, type: 3}
  - {fileID: 21300000, guid: 889dacf9d64d0e84ca5c6fef47f9d2fd, type: 3}
  - {fileID: 21300000, guid: 3bf5fff9fb0ebf24083f9d8391a1298c, type: 3}
  - {fileID: 21300000, guid: f5568d0a95518f741aa461bbbc4951ca, type: 3}
  - {fileID: 21300000, guid: 8528a01ac65f51d4e8fa9f3de3efa644, type: 3}
  - {fileID: 21300000, guid: efe3a21ae0239524185eb0ac868d5352, type: 3}
  - {fileID: 21300000, guid: 9965e21a7679b564faaac108f20fcebb, type: 3}
  - {fileID: 21300000, guid: df4d245a896232d42bfbe7a8dce5c9d9, type: 3}
  - {fileID: 21300000, guid: 5bed117a661020b4d80ce72759404cf4, type: 3}
  - {fileID: 21300000, guid: 58881a7a52e5c4cc78e0c5d3e55c3a8d, type: 3}
  - {fileID: 21300000, guid: cb3281aafcad3f645ac8b5a67afe5d17, type: 3}
  - {fileID: 21300000, guid: 51b082aab9e7c354d9fb0660183b6719, type: 3}
  - {fileID: 21300000, guid: 8fb230ba9d85a0641a172319a316644b, type: 3}
  - {fileID: 21300000, guid: 4a3d90fa334b1e9498606f9bc03ef797, type: 3}
  - {fileID: 21300000, guid: 42e538fa6a552104587cb877e8f00060, type: 3}
  - {fileID: 21300000, guid: 8f3ac8fa5feabf64ca71fe256aab307f, type: 3}
  - {fileID: 21300000, guid: 291c920b71d534e3cb53745b8757470f, type: 3}
  - {fileID: 21300000, guid: 7d4f352ba7ce94cd88ff7130a7e55317, type: 3}
  - {fileID: 21300000, guid: ae7c073ba247ca44bbe5bd22b1f76250, type: 3}
  - {fileID: 21300000, guid: 02f7804bf41d15342a11c96d7eaecf03, type: 3}
  - {fileID: 21300000, guid: de12164bcc21118489819c28e492293f, type: 3}
  - {fileID: 21300000, guid: 9e024f4babb52a84ebc90a78d2bcf9e8, type: 3}
  - {fileID: 21300000, guid: bd16736b000670c4e96965ffce9165f3, type: 3}
  - {fileID: 21300000, guid: 0e28827b357eedc4c8b6aab92e6d63b0, type: 3}
  - {fileID: 21300000, guid: cebc218b3cd7e464f9a7a261521eb49a, type: 3}
  - {fileID: 21300000, guid: 143a468bff432004093709841b7bfedf, type: 3}
  - {fileID: 21300000, guid: 04148ebbec691db4b8723c72174b1b5a, type: 3}
  - {fileID: 21300000, guid: f8d244cb437a5ec4c953853ebbd43edf, type: 3}
  - {fileID: 21300000, guid: ecc364cb985ea3048b8c6734954318d5, type: 3}
  - {fileID: 21300000, guid: 72b5f2dbbf65fda4cae07f08f074c0c4, type: 3}
  - {fileID: 21300000, guid: 7432fdeb9900cb0478e326333a3b3f87, type: 3}
  - {fileID: 21300000, guid: 7b63c3fb4e7810b468637e2256c492b2, type: 3}
  - {fileID: 21300000, guid: 603178fba50a91845ade4ee6285000a2, type: 3}
  - {fileID: 21300000, guid: 93a749fb65433f14faaaf04fe181afc2, type: 3}
  - {fileID: 21300000, guid: 33b1310c08c354f4898281bca69c1fc8, type: 3}
  - {fileID: 21300000, guid: 9800030c6686a2c459639c264686deed, type: 3}
  - {fileID: 21300000, guid: b4f9e70c2a12fc24c83832b77e968114, type: 3}
  - {fileID: 21300000, guid: ee62723c9a7857945a21efb220db0e3a, type: 3}
  - {fileID: 21300000, guid: 1c8d0f3c819da0e4a88a63ee794ac552, type: 3}
  - {fileID: 21300000, guid: c9840a4ca87bd499aa929a1a52045339, type: 3}
  - {fileID: 21300000, guid: 46a28b4c0e82f7e46a25b5847d585457, type: 3}
  - {fileID: 21300000, guid: 968ede4c2a54c496aa7cf87f8b79fd29, type: 3}
  - {fileID: 21300000, guid: e97d595c9d907bb408bac960667bc719, type: 3}
  - {fileID: 21300000, guid: bef5086c4bfacaf4eb96dc9296f261d6, type: 3}
  - {fileID: 21300000, guid: e103fc6c00b598c488a235267789b3d5, type: 3}
  - {fileID: 21300000, guid: 138cd37c873f60d4eb691885d20c3c05, type: 3}
  - {fileID: 21300000, guid: ba6eb09cebd94a14c8bfbeb7efb307d6, type: 3}
  - {fileID: 21300000, guid: 03e22dccf3a15674eabb64ed7e30e412, type: 3}
  - {fileID: 21300000, guid: 3c9984dcc6de9e048863de165aaa0174, type: 3}
  - {fileID: 21300000, guid: fb4ddcdc16784dc46ac7643eb35c305b, type: 3}
  - {fileID: 21300000, guid: 28a588fc0dadb4740ad670e778fc7b74, type: 3}
  - {fileID: 21300000, guid: f4422bfc4b033094ca6d7e74c1630c3c, type: 3}
  - {fileID: 21300000, guid: 24d1e51da8f40b4478d718f49d1d3319, type: 3}
  - {fileID: 21300000, guid: 70b2c91da920c9d4ea9d2b5515c689b7, type: 3}
  - {fileID: 21300000, guid: 7851542d63737462a8818f898b9fa4eb, type: 3}
  - {fileID: 21300000, guid: e9c1082dd2de9dc4bb3881a12681b026, type: 3}
  - {fileID: 21300000, guid: 93f0f33ddcb4d60468cf98880b8b52b3, type: 3}
  - {fileID: 21300000, guid: df5ff43d669841f409e67ffcff905296, type: 3}
  - {fileID: 21300000, guid: 5540953d7b0f0cf4da403e8ecc5d774c, type: 3}
  - {fileID: 21300000, guid: 5ffd916da6e45bc48adc7fa59e3cb296, type: 3}
  - {fileID: 21300000, guid: 8c65a47dd9d2d714e89e3771f52b55ee, type: 3}
  - {fileID: 21300000, guid: 52027ead36ec42041987761783e0573a, type: 3}
  - {fileID: 21300000, guid: 1d257abdd26841740b9f9e3c01288da0, type: 3}
  - {fileID: 21300000, guid: e4766ccdefae44489b2c2e8712c59ce0, type: 3}
  - {fileID: 21300000, guid: b9da6add584073f49a01a4b960797d91, type: 3}
  - {fileID: 21300000, guid: 392c2cddc2a0d4e51a24fe2e9189e7b9, type: 3}
  - {fileID: 21300000, guid: b3f1b60e1ee80734eb2e66564be9dc1a, type: 3}
  - {fileID: 21300000, guid: 39505d0e3c6aa7e4886ae245d6746255, type: 3}
  - {fileID: 21300000, guid: e609d02e9a0978b49b3e72329a18d48b, type: 3}
  - {fileID: 21300000, guid: f16da22e19f4ed144ad49ac5f568c0ce, type: 3}
  - {fileID: 21300000, guid: e943505e6afb26249be1f40aaabefa3e, type: 3}
  - {fileID: 21300000, guid: 68ee905ef4275b2488150ed21fdc5195, type: 3}
  - {fileID: 21300000, guid: c7b4006e6c23d488a971f08706c7417c, type: 3}
  - {fileID: 21300000, guid: 88d05b7e971bf9c4486664a6d5b2b7d2, type: 3}
  - {fileID: 21300000, guid: 275d679e1e8ee214f8e97f2e0aa7fd0b, type: 3}
  - {fileID: 21300000, guid: a47e189e8c0bc81439f268383b904832, type: 3}
  - {fileID: 21300000, guid: 861866de55cfd8f4985bc75a4bfb9b27, type: 3}
  - {fileID: 21300000, guid: 69ff342fdb437744bbb4208a1192d316, type: 3}
  - {fileID: 21300000, guid: b936d47f2ea47c44c9b16c5892e72851, type: 3}
  - {fileID: 21300000, guid: 14a0f28fd15252640af6323ab902502f, type: 3}
  - {fileID: 21300000, guid: 255f1a8fe5373f849b1e6a70a08ae467, type: 3}
  - {fileID: 21300000, guid: 3b0c4a8fe7aabc144b1ea294049bc49f, type: 3}
  - {fileID: 21300000, guid: 983087af7bc831c4c8a1a14a759cfc4f, type: 3}
  - {fileID: 21300000, guid: d89ca5cf7666d4a8b82586da50de1440, type: 3}
  - {fileID: 21300000, guid: f220a8cf4ac904847986473b794e416e, type: 3}
  m_PackedSpriteNamesToIndex:
  - Circle
  - icon_youtube
  - vibrate_switch_on
  - Button_Daily
  - Icon_close
  - hand01
  - Button_gdpr_blue
  - Pen 7
  - Room 1
  - Pen 4
  - Progress_fill
  - Waypoint Mark
  - Play_button
  - Pet 6
  - Checkbox_graphic
  - Talk Bubble 2
  - hand02
  - Frame_2
  - Corner24px
  - Corner10px
  - flag-russian
  - hand08
  - Button_room
  - hand11
  - shop_item_selected
  - Button_back
  - hand12
  - background_toggle
  - Button puple
  - Pen 2
  - hand03
  - Icon_money
  - button_restore_purchase
  - Button_OK
  - Pen 11
  - icon_twitter
  - Icon_back
  - Frame_3
  - Snow
  - Icon_home
  - Magic
  - Cry_pen
  - button_big_purple
  - Frame_6
  - Done_stage
  - Frame_0
  - Icon_gdpr_ads
  - Button_blue
  - PaintCircle
  - flag-french
  - Star
  - Icon_gdpr_setting
  - Floral
  - Room 2
  - Star_big
  - Perfect
  - arrow_up
  - Stamp_PerfectSmall
  - Frame_1
  - Pen 9
  - background_special
  - Clock
  - button_hint_all
  - Frame_4
  - Pen 5
  - Frame_special
  - Frame_7
  - text_no_thanks
  - Icon_rating
  - button_big_orange
  - flag-japanese
  - switch_bar
  - Blur
  - flag-korean
  - hand04
  - background_board
  - Button_customize
  - Pen 14
  - Corner15px
  - DotSwitch
  - Caption 2
  - vibrate_switch_off
  - Pen 0
  - Pack1Image
  - frame_demo_image
  - GoldenGift
  - Pen 17
  - hand07
  - ClockStop
  - Room 3
  - Stamp Completed
  - gallery_star_off
  - Empty
  - Talk Bubble
  - Recolor_button
  - Icon_star
  - Icon_setting
  - Pen 6
  - Caption 0
  - You found a GIFT
  - square
  - Icon_gdpr_benefit
  - Star_big_border
  - Pet 3
  - icon_facebook
  - icon_ads_special
  - Red_dot
  - LoadingIcon
  - Button_watch_ads
  - Pen 16
  - Pet 4
  - Line
  - Progress_border
  - Background_result
  - room_completed
  - Hand
  - hand00
  - Room 0
  - Pet 7
  - sound_switch_off
  - button_big_blue
  - Arrow_green
  - icon_lionstudios
  - Gift_icon
  - shop_room_item_lock
  - Pen 3
  - hand06
  - ButtonPinkNew
  - Gift_opened
  - sound_switch_on
  - Pen 10
  - Great
  - Button_Select_Room
  - Icon_special_tab
  - Pen 8
  - hand10
  - shop_gift_pet_lock
  - Pet 1
  - Switch_gdpr_background
  - Button_remove_ads
  - hand05
  - Caption 1
  - gallery_arrow
  - Bad
  - Button_No
  - White
  - Good
  - flag_x3
  - flag-english
  - Stamp Perfect
  - Bubble
  - Frame_8
  - Fill
  - hand09
  - Pet 5
  - Icon_pen_tab
  - Button_Powerup
  - icon_instagram
  - Pen 1
  - Daily_bonus
  - flag_x5
  - toggle_disable
  - Pen 15
  - flag-chinese
  - toggle_enable
  - Done
  - Button_Gallery
  - shop_gift_pen_lock
  - Caption 3
  - Icon_frame_tab
  - flag_x2
  - flag-spanish
  - Button_upgrade
  - Pen 12
  - Mandala
  - gallery_lock_icon
  - Pack2Image
  - Pet 0
  - icon_skip
  - Pen 13
  - Icon_pet_tab
  - Checkbox_background
  - button_buy_item
  - Icon video
  - Pet 2
  - Frame_5
  - gallery_star_on
  - flag-german
  - shop_item_background
  - consent_warning
  - Icon_retry
  - Button_Yes
  - text_lose_it
  - gallery_shadow
  - ButtonBlueNew
  - Pet 8
  m_Tag: UIAtlas
  m_IsVariant: 0
